<svg xmlns="http://www.w3.org/2000/svg" width="7.091" height="12.527" viewBox="0 0 7.091 12.527">
  <path id="chevron-left" d="M-1.253,1l-5,5.665,5,5.529" transform="translate(7.594 -0.338)" fill="none" stroke="#3a7298" stroke-width="2"/>
</svg>
