<svg xmlns="http://www.w3.org/2000/svg" width="18.55" height="30" viewBox="0 0 18.55 30">
  <path id="chevron-down" d="M9.525,8.58,21,20.055,32.475,8.58,36,12.13l-15,15-15-15Z" transform="translate(-8.58 36) rotate(-90)" fill="#fff"/>
</svg>
